simulation/qsim/Pong-on-fpga.msim.vcd
$comment
	File created using the following command:
		vcd file Pong-on-fpga.msim.vcd -direction
$end
$date
	Tue Jul  8 08:53:15 2025
$end
$version
	ModelSim Version 2020.1
$end
$timescale
	1ps
$end

$scope module comp_3b_vlg_vec_tst $end
$var reg 8 ! a [7:0] $end
$var reg 8 " b [7:0] $end
$var wire 1 # eq $end
$var wire 1 $ gt $end
$var wire 1 % lt $end

$scope module i1 $end
$var wire 1 & gnd $end
$var wire 1 ' vcc $end
$var wire 1 ( unknown $end
$var tri1 1 ) devclrn $end
$var tri1 1 * devpor $end
$var tri1 1 + devoe $end
$var wire 1 , lt~output_o $end
$var wire 1 - gt~output_o $end
$var wire 1 . eq~output_o $end
$var wire 1 / a[7]~input_o $end
$var wire 1 0 b[7]~input_o $end
$var wire 1 1 b[6]~input_o $end
$var wire 1 2 a[6]~input_o $end
$var wire 1 3 b[5]~input_o $end
$var wire 1 4 a[5]~input_o $end
$var wire 1 5 a[4]~input_o $end
$var wire 1 6 b[4]~input_o $end
$var wire 1 7 a[3]~input_o $end
$var wire 1 8 b[3]~input_o $end
$var wire 1 9 b[2]~input_o $end
$var wire 1 : a[2]~input_o $end
$var wire 1 ; a[1]~input_o $end
$var wire 1 < b[1]~input_o $end
$var wire 1 = b[0]~input_o $end
$var wire 1 > a[0]~input_o $end
$var wire 1 ? LessThan0~1_cout $end
$var wire 1 @ LessThan0~3_cout $end
$var wire 1 A LessThan0~5_cout $end
$var wire 1 B LessThan0~7_cout $end
$var wire 1 C LessThan0~9_cout $end
$var wire 1 D LessThan0~11_cout $end
$var wire 1 E LessThan0~13_cout $end
$var wire 1 F LessThan0~14_combout $end
$var wire 1 G LessThan1~1_cout $end
$var wire 1 H LessThan1~3_cout $end
$var wire 1 I LessThan1~5_cout $end
$var wire 1 J LessThan1~7_cout $end
$var wire 1 K LessThan1~9_cout $end
$var wire 1 L LessThan1~11_cout $end
$var wire 1 M LessThan1~13_cout $end
$var wire 1 N LessThan1~14_combout $end
$var wire 1 O Equal0~1_combout $end
$var wire 1 P Equal0~2_combout $end
$var wire 1 Q Equal0~0_combout $end
$var wire 1 R Equal0~3_combout $end
$var wire 1 S Equal0~4_combout $end
$upscope $end
$upscope $end
$enddefinitions $end
#0
$dumpvars
b1 !
b0 "
0#
1$
0%
0&
1'
x(
1)
1*
1+
0,
1-
0.
0/
00
01
02
03
04
05
06
07
08
09
0:
0;
0<
0=
1>
0?
1@
0A
1B
0C
1D
0E
0F
1G
0H
1I
0J
1K
0L
1M
1N
1O
1P
0Q
1R
0S
$end
#80000
b11 !
b10 !
b1 "
1=
0>
1;
0G
1?
#160000
b11 "
b11 !
b10 "
1>
0=
1<
1G
0?
1H
0@
0H
1@
0I
1A
1I
0A
1J
0B
0J
1B
0K
1C
1K
0C
1L
0D
0L
1D
0M
1E
1M
0E
0N
1F
1,
0-
0$
1%
1N
0F
0,
1-
1$
0%
#240000
b111 !
b101 !
b100 !
b11 "
1=
0>
0;
1:
0G
1?
1H
0@
0O
#320000
b111 "
b101 "
b101 !
b100 "
1>
0=
0<
19
1G
0?
1O
0I
1A
0H
1@
1J
0B
1I
0A
0K
1C
0J
1B
1L
0D
1K
0C
0M
1E
0L
1D
0N
1F
1,
0-
1M
0E
0$
1%
1N
0F
0,
1-
1$
0%
#400000
b111 !
b110 !
b101 "
1=
0>
1;
0G
1?
#480000
b111 "
b111 !
b110 "
1>
0=
1<
1G
0?
1H
0@
0H
1@
0I
1A
1I
0A
1J
0B
0J
1B
0K
1C
1K
0C
1L
0D
0L
1D
0M
1E
1M
0E
0N
1F
1,
0-
0$
1%
1N
0F
0,
1-
1$
0%
#560000
b1111 !
b1011 !
b1001 !
b1000 !
b111 "
1=
0>
0;
0:
17
0G
1?
1H
0@
0O
0I
1A
#640000
b1111 "
b1011 "
b1001 "
b1001 !
b1000 "
1>
0=
0<
09
18
1G
0?
1O
1J
0B
0H
1@
0K
1C
1I
0A
1L
0D
0J
1B
0M
1E
1K
0C
0N
1F
1,
0-
0L
1D
0$
1%
1M
0E
1N
0F
0,
1-
1$
0%
#720000
b1011 !
b1010 !
b1001 "
1=
0>
1;
0G
1?
#800000
b1011 "
b1011 !
b1010 "
1>
0=
1<
1G
0?
1H
0@
0H
1@
0I
1A
1I
0A
1J
0B
0J
1B
0K
1C
1K
0C
1L
0D
0L
1D
0M
1E
1M
0E
0N
1F
1,
0-
0$
1%
1N
0F
0,
1-
1$
0%
#880000
b1111 !
b1101 !
b1100 !
b1011 "
1=
0>
0;
1:
0G
1?
1H
0@
0O
#960000
b1111 "
b1101 "
b1101 !
b1100 "
1>
0=
0<
19
1G
0?
1O
0I
1A
0H
1@
1J
0B
1I
0A
0K
1C
0J
1B
1L
0D
1K
0C
0M
1E
0L
1D
0N
1F
1,
0-
1M
0E
0$
1%
1N
0F
0,
1-
1$
0%
